{
  "project_info": {
    "project_number": "123997483440",
    "firebase_url": "https://lab91-bcc7a.firebaseio.com",
    "project_id": "lab91-bcc7a",
    "storage_bucket": "lab91-bcc7a.appspot.com"
  },
  "client": [
    {
      "client_info": {
        "mobilesdk_app_id": "1:123997483440:android:3ac9f2fca22bdedf",
        "android_client_info": {
          "package_name": "pittawat.phongboribun.kku.ac.th.testfirebase"
        }
      },
      "oauth_client": [
        {
          "client_id": "123997483440-16q0r20q4ub7g1ckl49eucoi6ma9p438.apps.googleusercontent.com",
          "client_type": 1,
          "android_info": {
            "package_name": "pittawat.phongboribun.kku.ac.th.testfirebase",
            "certificate_hash": "332b93364663caa11da3469c743666d4aaa2b7e8"
          }
        },
        {
          "client_id": "123997483440-4teifgv4o2ch15f7uu4uvdomblbbtk62.apps.googleusercontent.com",
          "client_type": 3
        }
      ],
      "api_key": [
        {
          "current_key": "AIzaSyAUlVr3-ko7NvmnDZhlEl0pjWvO5I3IbPQ"
        }
      ],
      "services": {
        "analytics_service": {
          "status": 1
        },
        "appinvite_service": {
          "status": 2,
          "other_platform_oauth_client": [
            {
              "client_id": "123997483440-4teifgv4o2ch15f7uu4uvdomblbbtk62.apps.googleusercontent.com",
              "client_type": 3
            }
          ]
        },
        "ads_service": {
          "status": 2
        }
      }
    }
  ],
  "configuration_version": "1"
}